{
  "success": true,
  "data": {
    "name": "Multiaxle A/C Premium Deccan Auto",
    "layoutDetails": [
      {
        "seatId": 5492,
        "column": 2,
        "row": 1,
        "seatNumber": "V1",
        "seatType": "ST",
        "tier": 1,
        "vertical": false,
        "status": "BO",
        "availableFor": "FEMALE",
        "fare": 821,
        "serviceTax": 41.05
      },
      {
        "seatId": 5493,
        "column": 3,
        "row": 1,
        "seatNumber": "1",
        "seatType": "ST",
        "tier": 1,
        "vertical": false,
        "status": "BO",
        "availableFor": "FEMALE",
        "fare": 821,
        "serviceTax": 41.05
      },
      {
        "seatId": 5494,
        "column": 4,
        "row": 1,
        "seatNumber": "8",
        "seatType": "ST",
        "tier": 1,
        "vertical": false,
        "status": "BO",
        "availableFor": "FEMALE",
        "fare": 821,
        "serviceTax": 41.05
      },
      {
        "seatId": 5495,
        "column": 5,
        "row": 1,
        "seatNumber": "9",
        "seatType": "ST",
        "tier": 1,
        "vertical": false,
        "status": "A",
        "availableFor": "All",
        "fare": 821,
        "serviceTax": 41.05
      },
      {
        "seatId": 5496,
        "column": 6,
        "row": 1,
        "seatNumber": "16",
        "seatType": "ST",
        "tier": 1,
        "vertical": false,
        "status": "A",
        "availableFor": "All",
        "fare": 821,
        "serviceTax": 41.05
      },
      {
        "seatId": 5497,
        "column": 7,
        "row": 1,
        "seatNumber": "17",
        "seatType": "ST",
        "tier": 1,
        "vertical": false,
        "status": "A",
        "availableFor": "All",
        "fare": 821,
        "serviceTax": 41.05
      },
      {
        "seatId": 5498,
        "column": 8,
        "row": 1,
        "seatNumber": "24",
        "seatType": "ST",
        "tier": 1,
        "vertical": false,
        "status": "A",
        "availableFor": "All",
        "fare": 821,
        "serviceTax": 41.05
      },
      {
        "seatId": 5499,
        "column": 9,
        "row": 1,
        "seatNumber": "25",
        "seatType": "ST",
        "tier": 1,
        "vertical": false,
        "status": "A",
        "availableFor": "All",
        "fare": 821,
        "serviceTax": 41.05
      },
      {
        "seatId": 5500,
        "column": 10,
        "row": 1,
        "seatNumber": "32",
        "seatType": "ST",
        "tier": 1,
        "vertical": false,
        "status": "A",
        "availableFor": "All",
        "fare": 821,
        "serviceTax": 41.05
      },
      {
        "seatId": 5501,
        "column": 11,
        "row": 1,
        "seatNumber": "33",
        "seatType": "ST",
        "tier": 1,
        "vertical": false,
        "status": "A",
        "availableFor": "All",
        "fare": 821,
        "serviceTax": 41.05
      },
      {
        "seatId": 5502,
        "column": 12,
        "row": 1,
        "seatNumber": "40",
        "seatType": "ST",
        "tier": 1,
        "vertical": false,
        "status": "A",
        "availableFor": "All",
        "fare": 821,
        "serviceTax": 41.05
      },
      {
        "seatId": 5503,
        "column": 13,
        "row": 1,
        "seatNumber": "41",
        "seatType": "ST",
        "tier": 1,
        "vertical": false,
        "status": "A",
        "availableFor": "All",
        "fare": 821,
        "serviceTax": 41.05
      },
      {
        "seatId": 5505,
        "column": 2,
        "row": 2,
        "seatNumber": "V2",
        "seatType": "ST",
        "tier": 1,
        "vertical": false,
        "status": "BO",
        "availableFor": "FEMALE",
        "fare": 821,
        "serviceTax": 41.05
      },
      {
        "seatId": 5506,
        "column": 3,
        "row": 2,
        "seatNumber": "2",
        "seatType": "ST",
        "tier": 1,
        "vertical": false,
        "status": "A",
        "availableFor": "FEMALE",
        "fare": 821,
        "serviceTax": 41.05
      },
      {
        "seatId": 5507,
        "column": 4,
        "row": 2,
        "seatNumber": "7",
        "seatType": "ST",
        "tier": 1,
        "vertical": false,
        "status": "BO",
        "availableFor": "MALE",
        "fare": 821,
        "serviceTax": 41.05
      },
      {
        "seatId": 5508,
        "column": 5,
        "row": 2,
        "seatNumber": "10",
        "seatType": "ST",
        "tier": 1,
        "vertical": false,
        "status": "A",
        "availableFor": "All",
        "fare": 821,
        "serviceTax": 41.05
      },
      {
        "seatId": 5509,
        "column": 6,
        "row": 2,
        "seatNumber": "15",
        "seatType": "ST",
        "tier": 1,
        "vertical": false,
        "status": "A",
        "availableFor": "All",
        "fare": 821,
        "serviceTax": 41.05
      },
      {
        "seatId": 5510,
        "column": 7,
        "row": 2,
        "seatNumber": "18",
        "seatType": "ST",
        "tier": 1,
        "vertical": false,
        "status": "A",
        "availableFor": "All",
        "fare": 821,
        "serviceTax": 41.05
      },
      {
        "seatId": 5511,
        "column": 8,
        "row": 2,
        "seatNumber": "23",
        "seatType": "ST",
        "tier": 1,
        "vertical": false,
        "status": "A",
        "availableFor": "All",
        "fare": 821,
        "serviceTax": 41.05
      },
      {
        "seatId": 5512,
        "column": 9,
        "row": 2,
        "seatNumber": "26",
        "seatType": "ST",
        "tier": 1,
        "vertical": false,
        "status": "A",
        "availableFor": "All",
        "fare": 821,
        "serviceTax": 41.05
      },
      {
        "seatId": 5513,
        "column": 10,
        "row": 2,
        "seatNumber": "31",
        "seatType": "ST",
        "tier": 1,
        "vertical": false,
        "status": "A",
        "availableFor": "All",
        "fare": 821,
        "serviceTax": 41.05
      },
      {
        "seatId": 5514,
        "column": 11,
        "row": 2,
        "seatNumber": "34",
        "seatType": "ST",
        "tier": 1,
        "vertical": false,
        "status": "A",
        "availableFor": "All",
        "fare": 821,
        "serviceTax": 41.05
      },
      {
        "seatId": 5515,
        "column": 12,
        "row": 2,
        "seatNumber": "39",
        "seatType": "ST",
        "tier": 1,
        "vertical": false,
        "status": "A",
        "availableFor": "All",
        "fare": 821,
        "serviceTax": 41.05
      },
      {
        "seatId": 5516,
        "column": 13,
        "row": 2,
        "seatNumber": "42",
        "seatType": "ST",
        "tier": 1,
        "vertical": false,
        "status": "A",
        "availableFor": "All",
        "fare": 821,
        "serviceTax": 41.05
      },
      {
        "seatId": 5517,
        "column": 13,
        "row": 3,
        "seatNumber": "43",
        "seatType": "ST",
        "tier": 1,
        "vertical": false,
        "status": "A",
        "availableFor": "All",
        "fare": 821,
        "serviceTax": 41.05
      },
      {
        "seatId": 5519,
        "column": 2,
        "row": 4,
        "seatNumber": "V3",
        "seatType": "ST",
        "tier": 1,
        "vertical": false,
        "status": "A",
        "availableFor": "All",
        "fare": 821,
        "serviceTax": 41.05
      },
      {
        "seatId": 5520,
        "column": 3,
        "row": 4,
        "seatNumber": "3",
        "seatType": "ST",
        "tier": 1,
        "vertical": false,
        "status": "A",
        "availableFor": "All",
        "fare": 821,
        "serviceTax": 41.05
      },
      {
        "seatId": 5521,
        "column": 4,
        "row": 4,
        "seatNumber": "6",
        "seatType": "ST",
        "tier": 1,
        "vertical": false,
        "status": "A",
        "availableFor": "All",
        "fare": 821,
        "serviceTax": 41.05
      },
      {
        "seatId": 5522,
        "column": 5,
        "row": 4,
        "seatNumber": "11",
        "seatType": "ST",
        "tier": 1,
        "vertical": false,
        "status": "A",
        "availableFor": "All",
        "fare": 821,
        "serviceTax": 41.05
      },
      {
        "seatId": 5523,
        "column": 6,
        "row": 4,
        "seatNumber": "14",
        "seatType": "ST",
        "tier": 1,
        "vertical": false,
        "status": "A",
        "availableFor": "All",
        "fare": 821,
        "serviceTax": 41.05
      },
      {
        "seatId": 5524,
        "column": 7,
        "row": 4,
        "seatNumber": "19",
        "seatType": "ST",
        "tier": 1,
        "vertical": false,
        "status": "A",
        "availableFor": "All",
        "fare": 821,
        "serviceTax": 41.05
      },
      {
        "seatId": 5525,
        "column": 8,
        "row": 4,
        "seatNumber": "22",
        "seatType": "ST",
        "tier": 1,
        "vertical": false,
        "status": "A",
        "availableFor": "All",
        "fare": 821,
        "serviceTax": 41.05
      },
      {
        "seatId": 5526,
        "column": 9,
        "row": 4,
        "seatNumber": "27",
        "seatType": "ST",
        "tier": 1,
        "vertical": false,
        "status": "A",
        "availableFor": "All",
        "fare": 821,
        "serviceTax": 41.05
      },
      {
        "seatId": 5527,
        "column": 10,
        "row": 4,
        "seatNumber": "30",
        "seatType": "ST",
        "tier": 1,
        "vertical": false,
        "status": "A",
        "availableFor": "All",
        "fare": 821,
        "serviceTax": 41.05
      },
      {
        "seatId": 5528,
        "column": 11,
        "row": 4,
        "seatNumber": "35",
        "seatType": "ST",
        "tier": 1,
        "vertical": false,
        "status": "A",
        "availableFor": "All",
        "fare": 821,
        "serviceTax": 41.05
      },
      {
        "seatId": 5529,
        "column": 12,
        "row": 4,
        "seatNumber": "38",
        "seatType": "ST",
        "tier": 1,
        "vertical": false,
        "status": "A",
        "availableFor": "All",
        "fare": 821,
        "serviceTax": 41.05
      },
      {
        "seatId": 5530,
        "column": 13,
        "row": 4,
        "seatNumber": "44",
        "seatType": "ST",
        "tier": 1,
        "vertical": false,
        "status": "A",
        "availableFor": "All",
        "fare": 821,
        "serviceTax": 41.05
      },
      {
        "seatId": 5532,
        "column": 2,
        "row": 5,
        "seatNumber": "V4",
        "seatType": "ST",
        "tier": 1,
        "vertical": false,
        "status": "A",
        "availableFor": "All",
        "fare": 821,
        "serviceTax": 41.05
      },
      {
        "seatId": 5533,
        "column": 3,
        "row": 5,
        "seatNumber": "4",
        "seatType": "ST",
        "tier": 1,
        "vertical": false,
        "status": "A",
        "availableFor": "All",
        "fare": 821,
        "serviceTax": 41.05
      },
      {
        "seatId": 5534,
        "column": 4,
        "row": 5,
        "seatNumber": "5",
        "seatType": "ST",
        "tier": 1,
        "vertical": false,
        "status": "BO",
        "availableFor": "MALE",
        "fare": 821,
        "serviceTax": 41.05
      },
      {
        "seatId": 5535,
        "column": 5,
        "row": 5,
        "seatNumber": "12",
        "seatType": "ST",
        "tier": 1,
        "vertical": false,
        "status": "BO",
        "availableFor": "MALE",
        "fare": 821,
        "serviceTax": 41.05
      },
      {
        "seatId": 5536,
        "column": 6,
        "row": 5,
        "seatNumber": "13",
        "seatType": "ST",
        "tier": 1,
        "vertical": false,
        "status": "A",
        "availableFor": "All",
        "fare": 821,
        "serviceTax": 41.05
      },
      {
        "seatId": 5537,
        "column": 7,
        "row": 5,
        "seatNumber": "20",
        "seatType": "ST",
        "tier": 1,
        "vertical": false,
        "status": "BO",
        "availableFor": "MALE",
        "fare": 821,
        "serviceTax": 41.05
      },
      {
        "seatId": 5538,
        "column": 8,
        "row": 5,
        "seatNumber": "21",
        "seatType": "ST",
        "tier": 1,
        "vertical": false,
        "status": "A",
        "availableFor": "All",
        "fare": 821,
        "serviceTax": 41.05
      },
      {
        "seatId": 5539,
        "column": 9,
        "row": 5,
        "seatNumber": "28",
        "seatType": "ST",
        "tier": 1,
        "vertical": false,
        "status": "A",
        "availableFor": "All",
        "fare": 821,
        "serviceTax": 41.05
      },
      {
        "seatId": 5540,
        "column": 10,
        "row": 5,
        "seatNumber": "29",
        "seatType": "ST",
        "tier": 1,
        "vertical": false,
        "status": "A",
        "availableFor": "All",
        "fare": 821,
        "serviceTax": 41.05
      },
      {
        "seatId": 5541,
        "column": 11,
        "row": 5,
        "seatNumber": "36",
        "seatType": "ST",
        "tier": 1,
        "vertical": false,
        "status": "A",
        "availableFor": "All",
        "fare": 821,
        "serviceTax": 41.05
      },
      {
        "seatId": 5542,
        "column": 12,
        "row": 5,
        "seatNumber": "37",
        "seatType": "ST",
        "tier": 1,
        "vertical": false,
        "status": "A",
        "availableFor": "All",
        "fare": 821,
        "serviceTax": 41.05
      },
      {
        "seatId": 5543,
        "column": 13,
        "row": 5,
        "seatNumber": "45",
        "seatType": "ST",
        "tier": 1,
        "vertical": false,
        "status": "A",
        "availableFor": "All",
        "fare": 821,
        "serviceTax": 41.05
      },
      {
        "column": 1,
        "row": 1,
        "seatNumber": "-",
        "seatType": "AS",
        "tier": 1,
        "status": "BL",
        "availableFor": "-",
        "serviceTax": 0
      },
      {
        "column": 1,
        "row": 2,
        "seatNumber": "-",
        "seatType": "AS",
        "tier": 1,
        "status": "BL",
        "availableFor": "-",
        "serviceTax": 0
      },
      {
        "column": 1,
        "row": 3,
        "seatNumber": "-",
        "seatType": "AS",
        "tier": 1,
        "status": "BL",
        "availableFor": "-",
        "serviceTax": 0
      },
      {
        "column": 1,
        "row": 4,
        "seatNumber": "-",
        "seatType": "AS",
        "tier": 1,
        "status": "BL",
        "availableFor": "-",
        "serviceTax": 0
      },
      {
        "column": 1,
        "row": 5,
        "seatNumber": "-",
        "seatType": "AS",
        "tier": 1,
        "status": "BL",
        "availableFor": "-",
        "serviceTax": 0
      },
      {
        "column": 2,
        "row": 3,
        "seatNumber": "-",
        "seatType": "AS",
        "tier": 1,
        "status": "BL",
        "availableFor": "-",
        "serviceTax": 0
      },
      {
        "column": 3,
        "row": 3,
        "seatNumber": "-",
        "seatType": "AS",
        "tier": 1,
        "status": "BL",
        "availableFor": "-",
        "serviceTax": 0
      },
      {
        "column": 4,
        "row": 3,
        "seatNumber": "-",
        "seatType": "AS",
        "tier": 1,
        "status": "BL",
        "availableFor": "-",
        "serviceTax": 0
      },
      {
        "column": 5,
        "row": 3,
        "seatNumber": "-",
        "seatType": "AS",
        "tier": 1,
        "status": "BL",
        "availableFor": "-",
        "serviceTax": 0
      },
      {
        "column": 6,
        "row": 3,
        "seatNumber": "-",
        "seatType": "AS",
        "tier": 1,
        "status": "BL",
        "availableFor": "-",
        "serviceTax": 0
      },
      {
        "column": 7,
        "row": 3,
        "seatNumber": "-",
        "seatType": "AS",
        "tier": 1,
        "status": "BL",
        "availableFor": "-",
        "serviceTax": 0
      },
      {
        "column": 8,
        "row": 3,
        "seatNumber": "-",
        "seatType": "AS",
        "tier": 1,
        "status": "BL",
        "availableFor": "-",
        "serviceTax": 0
      },
      {
        "column": 9,
        "row": 3,
        "seatNumber": "-",
        "seatType": "AS",
        "tier": 1,
        "status": "BL",
        "availableFor": "-",
        "serviceTax": 0
      },
      {
        "column": 10,
        "row": 3,
        "seatNumber": "-",
        "seatType": "AS",
        "tier": 1,
        "status": "BL",
        "availableFor": "-",
        "serviceTax": 0
      },
      {
        "column": 11,
        "row": 3,
        "seatNumber": "-",
        "seatType": "AS",
        "tier": 1,
        "status": "BL",
        "availableFor": "-",
        "serviceTax": 0
      },
      {
        "column": 12,
        "row": 3,
        "seatNumber": "-",
        "seatType": "AS",
        "tier": 1,
        "status": "BL",
        "availableFor": "-",
        "serviceTax": 0
      }
    ],
    "totalSeatCount": 53,
    "availableSeatCount": 41,
    "maxRow": 5,
    "maxColumn": 13,
    "tierCount": 1,
    "boardingPoints": [
      {
        "stationPointName": "Egmore -Parveen Travels (Van/Bus Pickup)",
        "addressLine1": "11/5, Kenneth Lane Impala Complex",
        "addressLine2": "Egmore",
        "mobileNumber": "044-28192577 / 9789866999",
        "contactPersonName": "Mr Vinayagam",
        "addressLandMark": "Opp : Egmore Railway Station",
        "day": 1,
        "latitude": 13.077377718,
        "longitude": 80.2623125911,
        "addressPinCode": "600008",
        "stationPointTime": "17:30:00",
        "stationPointId": 33337
      },
      {
        "stationPointName": "Koyembedu New Parveen Terminus",
        "addressLine1": "No.37, School Street, Next to Vijayakanth Kalyanamandapam,",
        "addressLine2": "Koyambedu,Chennai ",
        "mobileNumber": "044-23634899 / 9952945555",
        "contactPersonName": "Staff",
        "addressLandMark": "Near Koyembedu Fly-Over Bridge",
        "day": 1,
        "latitude": 13.073929,
        "longitude": 80.2005741186,
        "addressPinCode": "600106",
        "stationPointTime": "18:30:00",
        "stationPointId": 33338
      },
      {
        "stationPointName": "Maduravoyal Bypass",
        "addressLine1": "Maduravoyal Bypass",
        "addressLine2": "Maduravoyal Bypass",
        "mobileNumber": "9952945555, 9600034799",
        "contactPersonName": "Staff",
        "addressLandMark": "Maduravoyal Bypass",
        "day": 1,
        "latitude": 13.0611082292,
        "longitude": 80.1628069729,
        "addressPinCode": "600000",
        "stationPointTime": "18:45:00",
        "stationPointId": 33339
      },
      {
        "stationPointName": "Porur Toll",
        "addressLine1": "Porur Toll",
        "addressLine2": "Toll Plaza",
        "mobileNumber": "9952945555, 9600034799",
        "contactPersonName": "Staff",
        "addressLandMark": "Junction",
        "day": 1,
        "latitude": 13.0450414817,
        "longitude": 80.149744213,
        "addressPinCode": "600000",
        "stationPointTime": "18:50:00",
        "stationPointId": 33340
      },
      {
        "stationPointName": "Perungalathur",
        "addressLine1": "No:1, Kamatchi Complex,GST Rd",
        "addressLine2": "Railway Station Opp,Perungalathur,Chennai",
        "mobileNumber": "044-49007555, 22392565/9003278699",
        "contactPersonName": "Mr Muruganantham",
        "addressLandMark": "Parveen Travels",
        "day": 1,
        "latitude": 12.9056427537,
        "longitude": 80.0962040126,
        "addressPinCode": "600063",
        "stationPointTime": "19:15:00",
        "stationPointId": 33341
      },
      {
        "stationPointName": "Vandalur (Crescent College)",
        "addressLine1": "GST Road, Vandalur",
        "addressLine2": "Chennai, Tamil Nadu",
        "mobileNumber": "044-49007555, 22392565/9003278699",
        "contactPersonName": "Staff",
        "addressLandMark": "Nearby (Crescent College) Entrance",
        "day": 1,
        "latitude": 12.8779565,
        "longitude": 80.079857,
        "addressPinCode": "600048",
        "stationPointTime": "19:20:00",
        "stationPointId": 33342
      },
      {
        "stationPointName": "Kelambakkam",
        "addressLine1": "EL SOTHERN RESIDENCY",
        "addressLine2": "Kelambakkam",
        "mobileNumber": "0442239256,9003278699",
        "contactPersonName": "Staff",
        "addressLandMark": "EL SOTHERN RESIDENCY",
        "day": 1,
        "latitude": 12.7870267281,
        "longitude": 80.2214813232,
        "addressPinCode": "600000",
        "stationPointTime": "20:00:00",
        "stationPointId": 33343
      },
      {
        "stationPointName": "Kalpakkam",
        "addressLine1": "ECR Main Road Bus Stand",
        "addressLine2": "Kalpakkam",
        "mobileNumber": "9894239632",
        "contactPersonName": "Staff",
        "addressLandMark": "Near Bus Stand",
        "day": 1,
        "latitude": 12.5232284896,
        "longitude": 80.1423454285,
        "addressPinCode": "600000",
        "stationPointTime": "21:00:00",
        "stationPointId": 33344
      },
      {
        "stationPointName": "Kovalam Toll",
        "addressLine1": "Kovalam Toll",
        "addressLine2": "Kovalam Toll",
        "mobileNumber": "9952945555",
        "contactPersonName": "Staff",
        "addressLandMark": "Kovalam Toll",
        "day": 1,
        "latitude": 12.751534569,
        "longitude": 80.2410507202,
        "addressPinCode": "600000",
        "stationPointTime": "20:10:00",
        "stationPointId": 33395
      },
      {
        "stationPointName": "Hotel Mamalla",
        "addressLine1": " Motel Mamalla",
        "addressLine2": " Motel Mamalla,Chennai",
        "mobileNumber": "0442239256,9003278699",
        "contactPersonName": "Staff",
        "addressLandMark": " Motel Mamalla",
        "day": 1,
        "latitude": 12.6272729097,
        "longitude": 80.1947021484,
        "addressPinCode": "600000",
        "stationPointTime": "20:30:00",
        "stationPointId": 33396
      }
    ],
    "droppingPoints": [
      {
        "stationPointName": "Gandhipuram Bus Stand",
        "addressLine1": "454, V.K.K Menon Road ,Gandhipuram (Behind AARVEE Hotel)",
        "addressLine2": "Near Thiruvallur Bus Stand,Coimbatore ",
        "mobileNumber": "9500062299,0422 4373519",
        "contactPersonName": "Staff",
        "addressLandMark": "(Behind AARVEE Hotel)",
        "day": 2,
        "latitude": 11,
        "longitude": 12,
        "addressPinCode": "641004",
        "stationPointTime": "03:45:00",
        "stationPointId": 33352
      }
    ]
  }
}